%YAML 1.1
%TAG !u! tag:unity3d.com,2011:
--- !u!1 &9174920873579055370
GameObject:
  m_ObjectHideFlags: 0
  m_CorrespondingSourceObject: {fileID: 0}
  m_PrefabInstance: {fileID: 0}
  m_PrefabAsset: {fileID: 0}
  serializedVersion: 6
  m_Component:
  - component: {fileID: 9174920873579055365}
  - component: {fileID: 9174920873579055364}
  - component: {fileID: 9174920873579055366}
  - component: {fileID: 9174920873579055367}
  m_Layer: 0
  m_Name: RightControllerScriptAlias
  m_TagString: Untagged
  m_Icon: {fileID: 0}
  m_NavMeshLayer: 0
  m_StaticEditorFlags: 0
  m_IsActive: 1
--- !u!4 &9174920873579055365
Transform:
  m_ObjectHideFlags: 0
  m_CorrespondingSourceObject: {fileID: 0}
  m_PrefabInstance: {fileID: 0}
  m_PrefabAsset: {fileID: 0}
  m_GameObject: {fileID: 9174920873579055370}
  m_LocalRotation: {x: -0, y: -0, z: -0, w: 1}
  m_LocalPosition: {x: 0, y: 0, z: 0}
  m_LocalScale: {x: 1, y: 1, z: 1}
  m_Children: []
  m_Father: {fileID: 0}
  m_RootOrder: 0
  m_LocalEulerAnglesHint: {x: 0, y: 0, z: 0}
--- !u!114 &9174920873579055364
MonoBehaviour:
  m_ObjectHideFlags: 0
  m_CorrespondingSourceObject: {fileID: 0}
  m_PrefabInstance: {fileID: 0}
  m_PrefabAsset: {fileID: 0}
  m_GameObject: {fileID: 9174920873579055370}
  m_Enabled: 1
  m_EditorHideFlags: 0
  m_Script: {fileID: 11500000, guid: eba3cd5456cd79e49948f5ceb58544b4, type: 3}
  m_Name: 
  m_EditorClassIdentifier: 
  axisFidelity: 1
  senseAxisForceZeroThreshold: 0.15
  senseAxisPressThreshold: 0.95
  triggerClickThreshold: 1
  triggerForceZeroThreshold: 0.01
  triggerAxisZeroOnUntouch: 0
  gripClickThreshold: 1
  gripForceZeroThreshold: 0.01
  gripAxisZeroOnUntouch: 0
  triggerPressed: 0
  triggerTouched: 0
  triggerHairlinePressed: 0
  triggerClicked: 0
  triggerAxisChanged: 0
  triggerSenseAxisChanged: 0
  gripPressed: 0
  gripTouched: 0
  gripHairlinePressed: 0
  gripClicked: 0
  gripAxisChanged: 0
  touchpadPressed: 0
  touchpadTouched: 0
  touchpadAxisChanged: 0
  touchpadSenseAxisChanged: 0
  touchpadTwoTouched: 0
  touchpadTwoPressed: 0
  touchpadTwoAxisChanged: 0
  buttonOnePressed: 0
  buttonOneTouched: 0
  buttonTwoPressed: 0
  buttonTwoTouched: 0
  startMenuPressed: 0
  middleFingerSenseAxisChanged: 0
  ringFingerSenseAxisChanged: 0
  pinkyFingerSenseAxisChanged: 0
  gripSenseAxisChanged: 0
  gripSensePressed: 0
  controllerVisible: 1
--- !u!114 &9174920873579055366
MonoBehaviour:
  m_ObjectHideFlags: 0
  m_CorrespondingSourceObject: {fileID: 0}
  m_PrefabInstance: {fileID: 0}
  m_PrefabAsset: {fileID: 0}
  m_GameObject: {fileID: 9174920873579055370}
  m_Enabled: 1
  m_EditorHideFlags: 0
  m_Script: {fileID: 11500000, guid: 0ec704cceb26f6f49b6c900fc83d8d18, type: 3}
  m_Name: 
  m_EditorClassIdentifier: 
  enableTeleport: 1
  targetListPolicy: {fileID: 0}
  pointerRenderer: {fileID: 9174920873579055367}
  activationButton: 9
  holdButtonToActivate: 1
  activateOnEnable: 0
  activationDelay: 0
  selectionButton: 10
  selectOnPress: 0
  selectionDelay: 0
  selectAfterHoverDuration: 0
  interactWithObjects: 0
  grabToPointerTip: 0
  attachedTo: {fileID: 0}
  controllerEvents: {fileID: 0}
  interactUse: {fileID: 0}
  customOrigin: {fileID: 0}
  controller: {fileID: 0}
--- !u!114 &9174920873579055367
MonoBehaviour:
  m_ObjectHideFlags: 0
  m_CorrespondingSourceObject: {fileID: 0}
  m_PrefabInstance: {fileID: 0}
  m_PrefabAsset: {fileID: 0}
  m_GameObject: {fileID: 9174920873579055370}
  m_Enabled: 1
  m_EditorHideFlags: 0
  m_Script: {fileID: 11500000, guid: 7fc65878c7102524bb8c2bcfbefff497, type: 3}
  m_Name: 
  m_EditorClassIdentifier: 
  playareaCursor: {fileID: 0}
  directionIndicator: {fileID: 0}
  customRaycast: {fileID: 0}
  pointerOriginSmoothingSettings:
    smoothsPosition: 0
    maxAllowedPerFrameDistanceDifference: 0.003
    smoothsRotation: 0
    maxAllowedPerFrameAngleDifference: 1.5
  validCollisionColor: {r: 0, g: 1, b: 0, a: 1}
  invalidCollisionColor: {r: 1, g: 0, b: 0, a: 1}
  tracerVisibility: 0
  cursorVisibility: 0
  maximumLength: 100
  scaleFactor: 0.002
  cursorScaleMultiplier: 25
  cursorMatchTargetRotation: 0
  cursorDistanceRescale: 0
  maximumCursorScale: {x: Infinity, y: Infinity, z: Infinity}
  customTracer: {fileID: 0}
  customCursor: {fileID: 0}
